<?xml version="1.0" encoding="utf-8"?>
<!-- Generator: Adobe Illustrator 21.1.0, SVG Export Plug-In . SVG Version: 6.00 Build 0)  -->
<svg version="1.1" id="Слой_1" xmlns="http://www.w3.org/2000/svg" xmlns:xlink="http://www.w3.org/1999/xlink" x="0px" y="0px"
	 viewBox="0 0 725.7 133.8" style="enable-background:new 0 0 725.7 133.8;" xml:space="preserve">
<g>
	<path d="M389.1,33.9c7.6,0,15.9,4.5,16.3,15.7c0,12.5-8.4,24.5-16.9,33.7c-8.4,9.2-14.5,15.3-20,15.3c-5.5,0-11.5-6-19.9-15.2
		c-8.5-9.2-17-21.2-16.9-33.8c0.4-11.2,8.6-15.7,16.3-15.7c2.8,0,5.5,0.6,7.7,1.7c8.2,4.1,10.8,8.5,12.9,8.5h0h0h0
		c2.1,0,4.7-4.4,12.9-8.5C383.6,34.5,386.3,33.9,389.1,33.9 M389.1,19.7L389.1,19.7c-5,0-9.9,1.1-14.1,3.2c-2.6,1.3-4.7,2.6-6.6,3.9
		c-1.8-1.2-4-2.6-6.6-3.8c-4.2-2.1-9.1-3.2-14.1-3.2c-14.6,0-29.7,10.1-30.4,29.4c0,0.2,0,0.3,0,0.5c0,14,6.7,28.2,20.7,43.4
		c8.9,9.7,18.2,19.8,30.4,19.8c12.2,0,21.5-10.1,30.5-19.9c13.9-15.1,20.6-29.3,20.6-43.3c0-0.2,0-0.3,0-0.5
		C418.8,29.8,403.7,19.7,389.1,19.7L389.1,19.7z"/>
	<path d="M54.8,35.5H51L62.5,24c2.8-2.8,2.8-7.2,0-10c-2.8-2.8-7.2-2.8-10,0L28.9,37.6c-2.8,2.8-2.8,7.2,0,10l23.6,23.6
		c1.4,1.4,3.2,2.1,5,2.1s3.6-0.7,5-2.1c2.8-2.8,2.8-7.2,0-10L51,49.6h3.8c15.6,0,28.3,12.7,28.3,28.3c0,15.6-12.7,28.3-28.3,28.3
		S26.4,93.6,26.4,78c0-3.9-3.2-7.1-7.1-7.1s-7.1,3.2-7.1,7.1c0,23.4,19.1,42.5,42.5,42.5S97.3,101.4,97.3,78S78.2,35.5,54.8,35.5z"
		/>
	<path d="M664.2,18c-26.5,0-48.1,21.6-48.1,48.1s21.6,48.1,48.1,48.1s48.1-21.6,48.1-48.1S690.7,18,664.2,18z M630.3,66.1
		c0-18.2,14.3-32.9,32.2-33.8c-8.6,0.9-15.2,8.1-15.2,16.9c0,9.4,8.1,14.9,17,17c8.9,2,17,7.6,17,17c0,9.4-7.6,17-17,17v0l0,0
		C645.4,100,630.3,84.8,630.3,66.1z"/>
	<path d="M253.1,57.6l-37.2,0V20.4c0-4.7-3.8-8.6-8.6-8.6c-4.7,0-8.6,3.8-8.6,8.6v37.2l-37.2,0c-4.7,0-8.6,3.8-8.6,8.6
		s3.8,8.6,8.6,8.6l37.2,0v37.2c0,4.7,3.8,8.6,8.6,8.6c4.7,0,8.6-3.8,8.6-8.6V74.7l37.2,0c4.7,0,8.6-3.8,8.6-8.6
		C261.6,61.4,257.8,57.6,253.1,57.6z"/>
	<path d="M483.5,57.6c-4.7,0-8.6-3.8-8.6-8.6c0-4.7,3.8-8.6,8.6-8.6l68.3,0c4.7,0,8.6,3.8,8.6,8.6s-3.8,8.6-8.6,8.6L483.5,57.6z
		 M551.8,91.9c4.7,0,8.6-3.8,8.6-8.6c0-4.7-3.8-8.6-8.6-8.6l-68.3,0c-4.7,0-8.6,3.8-8.6,8.6c0,4.7,3.8,8.6,8.6,8.6L551.8,91.9z"/>
</g>
</svg>
