<?xml version="1.0" encoding="utf-8"?>
<!-- Generator: Adobe Illustrator 21.1.0, SVG Export Plug-In . SVG Version: 6.00 Build 0)  -->
<svg version="1.1" id="Слой_1" xmlns="http://www.w3.org/2000/svg" xmlns:xlink="http://www.w3.org/1999/xlink" x="0px" y="0px"
	 viewBox="0 0 56.8 19.8" style="enable-background:new 0 0 56.8 19.8;" xml:space="preserve">
<g>
	<path d="M32.5,8.8L32.5,8.8c0.8,0,1.6,0.3,2.1,1c0.4,0.5,1,0.7,1.6,0.7l0,0c0.6,0,1.2-0.3,1.6-0.7c0.6-0.6,1.3-1,2.1-1c0,0,0,0,0,0
		c0.8,0,1.6,0.3,2.1,1c0.1,0.1,0.1,0.4,0,0.5c-0.1,0.1-0.4,0.1-0.5,0c-0.4-0.5-1-0.7-1.6-0.7c0,0,0,0,0,0c-0.6,0-1.2,0.3-1.6,0.7
		c-0.6,0.6-1.3,1-2.1,1l0,0c-0.8,0-1.6-0.3-2.1-1c-0.4-0.5-1-0.7-1.6-0.7h0c-0.6,0-1.2,0.3-1.6,0.7c-0.6,0.6-1.3,1-2.1,1l0,0
		c-0.8,0-1.6-0.3-2.1-1c-0.9-1-2.4-1-3.3,0c-0.6,0.6-1.3,1-2.1,1l0,0c-0.8,0-1.6-0.3-2.1-1c-0.4-0.5-1-0.7-1.6-0.7h0
		c-0.6,0-1.2,0.3-1.6,0.7c-0.1,0.1-0.3,0.1-0.5,0c-0.1-0.1-0.1-0.3,0-0.5c0.6-0.6,1.3-1,2.1-1h0c0.8,0,1.6,0.3,2.1,1
		c0.4,0.5,1,0.7,1.6,0.7l0,0c0.6,0,1.2-0.3,1.6-0.7c1.1-1.3,3.2-1.3,4.3,0c0.4,0.5,1,0.7,1.6,0.7l0,0c0.6,0,1.2-0.3,1.6-0.7
		C30.9,9.1,31.7,8.8,32.5,8.8z"/>
</g>
</svg>
